<tr id = "po_queue_add_|number|">
                            <form >
                                <td>
                                    <a href="#" ng-click="postCtrl.remove_row(|number|)" class="glyphicon glyphicon-remove red middle-ver " ></a>
				</td>
                                <td></td>
                                <td></td>
                                <td></td>
                                <td></td>
                                <td>
                                    <div class="form-group">
                                      <select class="form-control" id="product_type_add_|number|"   ng-model="item|number|" ng-change="getProductlist(|number|)">
                                         <option value=""  hidden>Select</option>
                                        <option value="1" selected>1</option>
                                        <option value="2">2</option>
                                        <option value="3">3</option>
                                      </select>
                                    </div>
                                </td>
                                <td>
                                <input type="text" id="product_id_add_|number|" name="searchProduct" autocomplete="off" list="searchProductList" class="form-control" ng-model=postCtrl.inputDataProduct|number| disabled="true" ng-change="setProductData(|number|)"/>
                                    <datalist id="searchProductList" name="searchList" autocomplete="off" >
                                               <option ng-repeat="x in product_list ">{{ x.name }}</option>
                                    </datalist>
                                </td>
                                <td><input id="product_line_add_|number|" type="text"  class="form-control" disabled="true" /></td>
                                <td><input id="line_step_add_|number|" disabled="true" type="text"  class="form-control"  value="0"/></td>
                                <td><input id="total_paper_add_|number|" type="text"  class="form-control"/></td>
                                <td><input id="total_price_add_|number|" type="text"  class="form-control"/></td>
                                <td>

                                </td>
                            </form>
                           </tr>